<?xml version="1.0" encoding="UTF-8" standalone="no"?>
<!-- Created with Inkscape (http://www.inkscape.org/) -->

<svg
   xmlns:dc="http://purl.org/dc/elements/1.1/"
   xmlns:cc="http://creativecommons.org/ns#"
   xmlns:rdf="http://www.w3.org/1999/02/22-rdf-syntax-ns#"
   xmlns:svg="http://www.w3.org/2000/svg"
   xmlns="http://www.w3.org/2000/svg"
   xmlns:sodipodi="http://sodipodi.sourceforge.net/DTD/sodipodi-0.dtd"
   xmlns:inkscape="http://www.inkscape.org/namespaces/inkscape"
   width="208.71939mm"
   height="242.95416mm"
   viewBox="0 0 208.71939 242.95416"
   version="1.1"
   id="svg8"
   inkscape:version="0.92.3 (2405546, 2018-03-11)"
   sodipodi:docname="ZoneDeRencontre.svg">
  <defs
     id="defs2" />
  <sodipodi:namedview
     id="base"
     pagecolor="#000000"
     bordercolor="#666666"
     borderopacity="1.0"
     inkscape:pageopacity="0"
     inkscape:pageshadow="2"
     inkscape:zoom="0.7"
     inkscape:cx="157.62342"
     inkscape:cy="405.32116"
     inkscape:document-units="mm"
     inkscape:current-layer="layer1"
     showgrid="false"
     inkscape:pagecheckerboard="true"
     fit-margin-top="0"
     fit-margin-left="0"
     fit-margin-right="0"
     fit-margin-bottom="0"
     inkscape:window-width="1916"
     inkscape:window-height="1041"
     inkscape:window-x="0"
     inkscape:window-y="18"
     inkscape:window-maximized="0"
     units="mm" />
  <metadata
     id="metadata5">
    <rdf:RDF>
      <cc:Work
         rdf:about="">
        <dc:format>image/svg+xml</dc:format>
        <dc:type
           rdf:resource="http://purl.org/dc/dcmitype/StillImage" />
        <dc:title></dc:title>
      </cc:Work>
    </rdf:RDF>
  </metadata>
  <g
     inkscape:label="Calque 1"
     inkscape:groupmode="layer"
     id="layer1"
     transform="translate(-1.5792135,-6.8951046)">
    <path
       style="fill:#ffffff;stroke-width:1"
       d="M 15.727133,8.2492522 14.30229,8.6290319 C 8.904323,10.068251 4.761285,14.304821 3.492738,19.682401 c -0.28463,1.20666 -0.299723,5.7248 -0.299723,90.110139 0,84.38535 0.01507,88.90351 0.299723,90.11014 1.35652,5.75055 6.024369,10.20872 11.782825,11.25318 1.099138,0.19935 14.905459,0.23119 89.968887,0.20777 l 88.67042,-0.0278 1.34577,-0.38275 c 5.40685,-1.53727 9.46102,-5.71661 10.71925,-11.0504 0.28456,-1.20663 0.29971,-5.72479 0.29971,-90.11014 0,-84.385339 -0.0151,-88.903479 -0.29971,-90.110139 -1.26856,-5.37758 -5.41157,-9.61415 -10.80956,-11.0533691 l -1.42484,-0.3797797 h -89.00918 z m 0.33876,0.6775197 h 88.670417 88.67042 l 1.43973,0.3830897 c 5.27838,1.4044494 8.96807,5.0941694 10.37254,10.3725394 l 0.38308,1.43973 v 88.670409 88.67041 l -0.38308,1.43973 c -1.39341,5.23682 -5.00171,8.87465 -10.28785,10.37188 l -1.35504,0.38375 -88.24697,0.0225 c -49.210996,0.0124 -88.696518,-0.043 -89.263247,-0.12505 -5.793205,-0.83909 -10.276947,-4.88282 -11.812268,-10.65309 l -0.38309,-1.43973 V 109.79253 21.122121 l 0.38309,-1.43973 C 5.658074,14.404021 9.347788,10.714301 14.626163,9.3098516 Z M 85.478271,36.550931 c -2.938075,0.008 -3.160293,0.0913 -3.676074,0.31295 l -0.83036,0.35663 -1.879719,4.98744 -1.880052,4.98745 -0.589192,0.1191 c -0.38536,0.0779 -0.840267,0.3851 -1.31534,0.88792 l -0.726151,0.76849 0.04499,4.79227 0.04499,4.79193 1.43973,0.0847 1.43973,0.0847 0.04598,3.46468 c 0.03335,2.51216 0.103168,3.50082 0.25407,3.59668 0.114457,0.0727 1.19896,0.13199 2.410027,0.13199 1.211065,0 2.295567,-0.0593 2.410024,-0.13199 0.150903,-0.0959 0.220743,-1.08452 0.25407,-3.59668 l 0.04599,-3.46468 10.797974,-0.0437 10.797972,-0.0437 v 3.40017 c 0,2.01978 0.0712,3.53306 0.17534,3.72768 0.16039,0.29969 0.37515,0.32752 2.51986,0.32752 1.74088,0 2.39225,-0.0578 2.5311,-0.22463 0.11877,-0.14311 0.20332,-1.48128 0.23257,-3.68401 l 0.046,-3.45939 1.10097,-0.0847 1.10097,-0.0847 0.045,-4.78929 0.045,-4.78961 -0.78802,-0.84227 c -0.43342,-0.46336 -0.92562,-0.8426 -1.09369,-0.8426 -0.16807,0 -0.36491,-0.0953 -0.43767,-0.21173 -0.0728,-0.11644 -0.78422,-2.33901 -1.581,-4.93914 -1.26806,-4.1381 -1.50776,-4.77164 -1.92239,-5.0814 -0.46663,-0.3486 -0.64887,-0.35535 -12.191391,-0.4529 -4.367942,-0.0369 -7.108431,-0.0598 -8.871277,-0.0552 z m -1.999146,2.69486 6.775199,0.0678 c 3.726357,0.0374 8.49017,0.11359 10.586246,0.16938 l 3.81105,0.10156 0.96004,3.47229 c 0.52806,1.90976 0.96633,3.64379 0.97394,3.85339 l 0.0139,0.38111 H 93.821223 c -7.054307,0 -12.819004,-0.0659 -12.869239,-0.14722 -0.05006,-0.081 0.498132,-1.89122 1.21808,-4.02277 z m 16.279996,1.27035 c -0.951724,0 -1.578808,0.2331 -2.194331,0.81547 -0.689668,0.65253 -0.958716,1.25785 -0.958716,2.15695 0,1.37372 0.726704,2.43341 1.974003,2.87814 0.980744,0.34968 1.621043,0.29556 2.609843,-0.22099 2.8444,-1.48594 1.7913,-5.62957 -1.430799,-5.62957 z m 7.506309,10.78805 c 0.58539,-0.015 1.16025,0.20613 1.52376,0.66826 1.26177,1.60408 -0.18162,3.80908 -2.13346,3.25924 -1.3323,-0.37532 -1.86833,-2.12046 -0.97691,-3.17985 0.40542,-0.48181 1.00122,-0.73267 1.58661,-0.74765 z m -27.3456,0.0579 c 0.459669,-0.005 0.935123,0.15457 1.346107,0.51542 1.077411,0.94598 0.944156,2.45787 -0.282851,3.20598 -0.667186,0.40679 -1.214004,0.42212 -1.959118,0.0549 -0.643883,-0.31732 -1.049692,-0.99386 -1.049692,-1.74937 0,-1.20903 0.934281,-2.01598 1.945554,-2.02694 z m 55.64165,6.25581 c -1.20597,-0.0402 -2.26933,0.43084 -3.16528,1.40665 -2.73801,2.98206 -0.5829,8.24525 3.37899,8.25198 l 0.97394,0.002 v 0.65503 c 0,0.63612 -0.14548,0.79598 -5.04005,5.54719 -2.7719,2.69071 -5.89695,5.70161 -6.94458,6.69117 l -1.90453,1.79933 v 1.13373 c 0,0.62354 0.0746,1.2733 0.16574,1.4437 0.1967,0.3675 1.02337,0.68413 1.7861,0.68413 1.40652,0 1.39666,0.008 6.44438,-5.27228 5.13687,-5.37351 5.21797,-5.43707 6.11587,-4.80814 0.36589,0.25627 5.46357,8.2229 5.60311,8.75648 0.0953,0.36432 0.44988,0.28595 -6.05666,1.33651 -6.85077,1.10616 -7.89883,1.52647 -8.07566,3.23741 -0.0746,0.72224 -0.0505,0.76076 2.15563,3.44053 4.07975,4.95563 3.77185,4.65795 4.81939,4.65795 0.86684,0 0.93631,-0.0339 1.51251,-0.73707 0.41453,-0.50587 0.63338,-0.97072 0.69803,-1.48207 0.0893,-0.70655 0.05,-0.79637 -0.76552,-1.73714 -1.79619,-2.07208 -1.73263,-2.16554 1.38515,-2.03223 1.33105,0.0569 2.48411,0.16139 2.5622,0.23224 0.0781,0.0708 -0.33177,0.88063 -0.91075,1.79933 l -1.05267,1.67031 -0.22694,4.573258 c -0.4359,8.785051 -0.33284,9.671411 1.20154,10.348711 0.73095,0.32265 1.52452,0.28723 2.28663,-0.10156 h 3.4e-4 c 1.08808,-0.5551 1.18371,-1.13756 1.19459,-7.27176 l 0.009,-5.177659 4.05122,-4.57326 c 3.76979,-4.25576 4.08203,-4.65771 4.49783,-5.78969 0.38012,-1.0348 0.43575,-1.41411 0.37284,-2.54069 -0.0453,-0.81172 -0.21805,-1.68484 -0.44595,-2.25587 -0.2045,-0.51237 -2.67679,-4.31744 -5.49426,-8.45577 l -5.12275,-7.52417 -0.98585,-0.32884 c -0.87635,-0.29211 -0.97298,-0.36893 -0.86774,-0.69075 0.29126,-0.89067 0.28455,-2.79616 -0.0132,-3.69262 -0.38294,-1.15296 -1.86494,-2.68374 -2.89004,-2.98532 -0.43268,-0.12729 -0.8505,-0.19734 -1.25249,-0.21073 z m -68.307766,27.13057 c -0.711672,-0.007 -1.438892,0.0636 -2.171836,0.21901 -2.550922,0.54071 -5.269542,2.5663 -6.316351,4.70592 -1.898846,3.8811 -0.877576,8.249291 2.530114,10.822109 l 0.938868,0.70862 -0.04863,1.45693 -0.04863,1.45726 -0.631867,0.30866 c -0.347566,0.16984 -1.452771,0.50067 -2.45601,0.73508 -3.550982,0.82972 -2.927945,0.35403 -10.082409,7.69786 -3.504062,3.59679 -6.90145,7.02673 -7.549981,7.6221 l -1.179374,1.08244 -3.071997,9.35328 -3.071997,9.35361 0.04797,1.91016 0.04797,1.91049 1.346769,0.67752 c 1.175819,0.5915 1.492857,0.67752 2.496039,0.67752 1.117947,0 1.167581,-0.0186 1.838037,-0.6891 0.635804,-0.63581 0.993027,-1.46769 4.618582,-10.75133 l 3.929484,-10.0619 3.726027,-2.92445 c 2.049203,-1.60845 3.782865,-2.9254 3.852734,-2.92644 0.230483,-0.003 0.136636,0.85295 -0.896192,8.19045 l -1.022896,7.26812 -12.533457,23.46608 c -10.187708,19.07434 -12.49243,23.50629 -12.315447,23.68144 0.119759,0.11849 2.199497,1.36268 4.62156,2.76466 l 4.403548,2.54896 h 1.408632 c 1.065677,0 1.614209,-0.0888 2.25454,-0.36421 v 0 c 0.734283,-0.31588 0.912195,-0.49476 1.344122,-1.3504 0.91699,-1.81657 0.469483,-4.06334 -1.03679,-5.20613 -0.413681,-0.31385 -0.77577,-0.63352 -0.804885,-0.71026 -0.02913,-0.0768 4.078026,-7.5759 9.126999,-16.66475 l 9.179933,-16.52513 h 0.972612 c 0.577901,0 1.03941,0.0859 1.136697,0.21172 0.09005,0.11645 4.84077,9.1952 10.557468,20.17508 5.716698,10.97987 10.479863,19.99627 10.584595,20.03645 0.151965,0.0583 6.074505,-2.69636 10.445981,-4.85875 1.054204,-0.52147 1.31865,-1.17076 1.31865,-3.23575 0,-1.25831 -0.06621,-1.65777 -0.361257,-2.18275 -0.571453,-1.01677 -1.256744,-1.23465 -3.647623,-1.15986 l -2.000471,0.0625 -9.777393,-19.30931 c -5.377615,-10.62012 -9.842193,-19.49987 -9.921301,-19.73276 -0.147802,-0.43513 1.165797,-13.84588 1.392092,-14.21204 0.17439,-0.28217 0.861262,-0.22129 1.255463,0.11115 0.193315,0.16303 1.045705,1.89706 1.894278,3.8534 0.848572,1.95634 1.67058,3.6818 1.826789,3.83421 0.287464,0.28046 15.205106,7.25274 17.391553,8.12858 1.020249,0.40869 1.424924,0.47566 2.9003,0.48068 l 1.714312,0.006 0.672557,-0.72979 c 0.893175,-0.96898 1.394114,-2.42572 1.241899,-3.61222 -0.105815,-0.82479 -0.271421,-1.17311 -0.978566,-2.05737 -0.19615,-0.24528 -3.211346,-1.6839 -8.260582,-3.94173 -4.373382,-1.95562 -8.016497,-3.62087 -8.095834,-3.70022 -0.07934,-0.0793 -1.660146,-3.33594 -3.51265,-7.23703 -2.023476,-4.26111 -3.633256,-7.43244 -4.032368,-7.94365 -0.470439,-0.60256 -1.078183,-1.08459 -2.081853,-1.65146 -0.779554,-0.44028 -1.493455,-0.82611 -1.586612,-0.85715 -0.162586,-0.0542 -0.432212,-3.22752 -0.305348,-3.5937 0.03393,-0.0979 0.535447,-0.41178 1.114864,-0.69771 2.985091,-1.472987 4.864713,-4.472139 4.864713,-7.762679 0,-4.99102 -4.214438,-8.82135 -9.196142,-8.8683 z m 93.632066,3.82131 c -3.26742,-0.0123 -5.85417,1.06783 -8.22122,3.43292 -2.2923,2.29041 -3.47918,4.95086 -3.66846,8.222859 -0.22264,3.84859 1.1972,7.348 4.05486,9.99375 1.36279,1.26174 3.62761,2.46866 5.20943,2.77624 0.51238,0.0996 1.08403,0.21646 1.27035,0.25937 0.61157,0.14083 3.19741,-0.0626 4.2345,-0.33314 4.18592,-1.09184 7.73009,-4.8703 8.65492,-9.22691 0.37903,-1.78547 0.2449,-5.085951 -0.26863,-6.605809 -1.12468,-3.32871 -3.1411,-5.73209 -6.09966,-7.27076 -1.74591,-0.908 -3.12261,-1.24082 -5.16609,-1.24852 z m -39.89759,0.38904 c -3.34486,0 -5.75697,1.01813 -8.22684,3.47229 -1.32674,1.31833 -1.65381,1.76166 -2.31409,3.13883 -1.0143,2.115584 -1.32803,3.471405 -1.32427,5.720199 0.007,3.90961 1.56056,7.29395 4.45648,9.70428 1.25887,1.04778 3.34869,2.09269 4.88092,2.44046 1.53199,0.34773 4.29106,0.22749 5.83931,-0.2544 3.21508,-1.0007 6.09283,-3.62147 7.5126,-6.84136 0.95987,-2.1769 1.26991,-5.04815 0.79794,-7.390194 -0.55821,-2.769955 -1.5518,-4.643205 -3.511,-6.619045 -1.04625,-1.05514 -1.60482,-1.45981 -2.87946,-2.08516 -2.02873,-0.99532 -3.21124,-1.2859 -5.23159,-1.2859 z m 33.77113,32.884189 c -1.42805,-0.007 -2.75361,0.0354 -3.62811,0.13564 -12.31644,1.41108 -22.93534,8.90919 -28.43863,20.08079 -1.79056,3.63478 -2.87099,7.09298 -3.49214,11.17908 -0.38617,2.54028 -0.38501,7.80421 0.002,10.33218 1.25155,8.17067 4.70252,15.05072 10.4162,20.76592 5.95841,5.96001 13.17563,9.44566 21.69718,10.47939 2.11261,0.25627 7.59694,0.0813 9.82404,-0.31329 7.83337,-1.3881 14.56393,-4.97912 20.05532,-10.70037 5.34463,-5.56835 8.63748,-12.32904 9.85381,-20.23165 0.39362,-2.55746 0.39529,-7.80499 0.003,-10.33218 -1.26741,-8.16828 -4.73802,-15.15317 -10.32094,-20.77188 -5.37549,-5.40998 -11.9702,-8.8515 -19.5915,-10.22433 -1.33573,-0.24061 -4.00045,-0.38792 -6.38053,-0.3993 z m 0.19319,1.82712 a 34.182531,34.666474 0 0 1 34.18267,34.66666 34.182531,34.666474 0 0 1 -34.18267,34.66633 34.182531,34.666474 0 0 1 -34.18266,-34.66633 34.182531,34.666474 0 0 1 34.18266,-34.66666 z m 0,9.57063 a 24.745646,25.095985 0 0 0 -24.74568,25.09603 24.745646,25.095985 0 0 0 24.74568,25.0957 24.745646,25.095985 0 0 0 24.74569,-25.0957 24.745646,25.095985 0 0 0 -24.74569,-25.09603 z m 11.68193,13.01811 c 1.13641,-0.022 2.3014,0.16649 3.52456,0.56339 1.14411,0.37125 2.71169,1.58645 3.59635,2.78815 1.54515,2.09897 2.42284,6.54399 2.238,11.3349 -0.15058,3.90309 -1.03566,6.36991 -2.98202,8.31251 -2.11164,2.10756 -4.84029,2.80878 -8.14512,2.0931 -2.60614,-0.56436 -4.43973,-1.99587 -5.58061,-4.35657 -0.96146,-1.98943 -1.20743,-3.17163 -1.31402,-6.31668 -0.23889,-7.04848 1.29459,-11.72212 4.35955,-13.28574 1.42846,-0.72875 2.84221,-1.1048 4.30331,-1.13306 z m -21.22113,0.10917 c 0.91462,0.0154 1.78045,0.10823 2.27439,0.2726 2.56036,0.85202 4.27118,2.51598 5.02351,4.88654 0.26129,0.8233 0.31311,1.37027 0.2544,2.68527 -0.0667,1.49277 -0.13578,1.77754 -0.71887,2.96415 -0.58432,1.18908 -1.00955,1.67944 -4.51438,5.20645 -2.1281,2.14157 -3.86927,3.95181 -3.86927,4.02277 0,0.071 2.12595,0.12902 4.72444,0.12902 4.15189,0 4.73698,0.0325 4.82733,0.26797 0.19718,0.51382 0.11339,4.2273 -0.10024,4.44093 -0.1524,0.15239 -2.22212,0.20312 -8.2715,0.20312 -4.43747,0 -8.11908,-0.0507 -8.18118,-0.11281 -0.0621,-0.0621 -0.11281,-1.18827 -0.11281,-2.50232 v -2.38919 l 1.45362,-1.43575 c 0.79958,-0.7898 3.27041,-3.30968 5.49063,-5.59947 4.34503,-4.48119 4.56374,-4.7972 4.30132,-6.2138 -0.27352,-1.47659 -2.127,-2.45008 -3.92882,-2.06365 -1.47178,0.31564 -2.15314,0.97978 -2.64193,2.57444 -0.0805,0.26254 -0.34382,0.29642 -2.3035,0.29642 -2.56595,0 -2.5206,0.0324 -2.20757,-1.57339 0.2604,-1.33575 1.07514,-2.8881 1.98261,-3.77664 0.8768,-0.85851 2.71738,-1.83256 3.95132,-2.09145 0.68867,-0.14448 1.65189,-0.20659 2.5665,-0.19121 z m 21.48546,4.75521 c -1.84962,0 -2.77546,0.72353 -3.40646,2.66277 -0.31539,0.96928 -0.38443,1.64391 -0.44826,4.36948 -0.15254,6.51338 0.78491,8.52215 3.98704,8.54211 0.58963,0.004 1.34233,-0.10937 1.68785,-0.25374 1.90212,-0.79476 2.48793,-2.78638 2.3776,-8.0826 -0.0602,-2.88753 -0.1139,-3.39325 -0.47175,-4.43035 -0.68112,-1.97403 -1.78769,-2.80767 -3.72602,-2.80767 z"
       id="path4792-1"
       inkscape:connector-curvature="0"
       inkscape:export-filename="/media/mathieu/1C20-4015/ZoneDeRencontre.png"
       inkscape:export-xdpi="300"
       inkscape:export-ydpi="300" />
    <flowRoot
       xml:space="preserve"
       id="flowRoot4873"
       style="font-style:normal;font-weight:normal;font-size:40px;line-height:1.25;font-family:sans-serif;letter-spacing:0px;word-spacing:0px;fill:#000000;fill-opacity:1;stroke:none"
       transform="matrix(0.26458333,0,0,0.26458333,-18.218457,-12.624406)"
       inkscape:export-filename="/media/mathieu/1C20-4015/ZoneDeRencontre.png"
       inkscape:export-xdpi="300"
       inkscape:export-ydpi="300"><flowRegion
         id="flowRegion4875"><rect
           id="rect4877"
           width="887.14282"
           height="249.99995"
           x="17.142857"
           y="873.9483" /></flowRegion><flowPara
         style="font-style:normal;font-variant:normal;font-weight:normal;font-stretch:normal;font-size:96px;font-family:Pacifico;-inkscape-font-specification:Pacifico;text-align:center;text-anchor:middle;fill:#ffffff"
         id="flowPara4805"><flowSpan
           style="font-size:85.33333588px"
           id="flowSpan4811">Zone de </flowSpan><flowSpan
           style="font-size:120px"
           id="flowSpan4809">Rencontre</flowSpan></flowPara></flowRoot>  </g>
</svg>
